██╗   ██╗██╗██████╗ ███████╗ ██████╗                                
██║   ██║██║██╔══██╗██╔════╝██╔═══██╗                               
██║   ██║██║██║  ██║█████╗  ██║   ██║                               
╚██╗ ██╔╝██║██║  ██║██╔══╝  ██║   ██║                               
 ╚████╔╝ ██║██████╔╝███████╗╚██████╔╝                               
  ╚═══╝  ╚═╝╚═════╝ ╚══════╝ ╚═════╝                                
             ```                                                    
           /o+. ```                 ██╗  ██╗ █████╗  ██████╗██╗  ██╗
         .hmmoddo: ```              ██║  ██║██╔══██╗██╔════╝██║ ██╔╝
        /mmmdomdhddo  ```           ███████║███████║██║     █████╔╝ 
      `smmmm+/-----`-`   ```        ██╔══██║██╔══██║██║     ██╔═██╗ 
      smmmmh--/yy.`yMMd+.   ```     ██║  ██║██║  ██║╚██████╗██║  ██╗
      -ymmms--oy..mMNhNdMdo.    ``` ╚═╝  ╚═╝╚═╝  ╚═╝ ╚═════╝╚═╝  ╚═╝
`       `/ymo-` /NMNm/shsNmMmo.    ```                              
````       `/. `hMMNdmdsysdyhdMmo. `` ```                           
 ``..``          `+hMMmNdhNhdMNMm.`omy+. ```                        
    ``..``          `/hMMNhyNMMy`---+mmmo:` ``` ``                  
       ``...`          `/yNMMN/`yd/--hsydmh    `..                  
          ``...`          `/s. :+:--+hmmmd:   ...                   
             ``...`          -o+/+sdmmmmh.  `..`                    
                ``...`        -odmmmmmmo   `..`                     
                   ``...`        -ohdy:   ...                       
                      ``...`            `..`                        
                          `...``       `..`                         
                             `...``   ...                           
                                `...`..`                            
███████╗ ██████╗ ███████╗████████╗██╗    ██╗ █████╗ ██████╗ ███████╗
██╔════╝██╔═══██╗██╔════╝╚══██╔══╝██║    ██║██╔══██╗██╔══██╗██╔════╝
███████╗██║   ██║█████╗     ██║   ██║ █╗ ██║███████║██████╔╝█████╗  
╚════██║██║   ██║██╔══╝     ██║   ██║███╗██║██╔══██║██╔══██╗██╔══╝  
███████║╚██████╔╝██║        ██║   ╚███╔███╔╝██║  ██║██║  ██║███████╗
╚══════╝ ╚═════╝ ╚═╝        ╚═╝    ╚══╝╚══╝ ╚═╝  ╚═╝╚═╝  ╚═╝╚══════╝